User-Id,First-Name,Last-Name,Rating
0,FirstName 0,LastName 0,283
1,FirstName 1,LastName 1,192
2,FirstName 2,LastName 2,125
3,FirstName 3,LastName 3,241
4,FirstName 4,LastName 4,117
5,FirstName 5,LastName 5,151
6,FirstName 6,LastName 6,217
7,FirstName 7,LastName 7,251
8,FirstName 8,LastName 8,33
9,FirstName 9,LastName 9,113
